{
  "triumph:stage0/mat": {
    "criteria": {
      "completedParent": "2024-04-19 16:03:14 +0700",
      "hasRock": "2024-04-19 16:12:00 +0700"
    },
    "done": true
  },
  "triumph:stage0/melter": {
    "criteria": {
      "completedParent": "2024-04-21 20:06:51 +0700",
      "hasRock": "2024-04-21 21:10:03 +0700",
      "hasRock2": "2024-04-21 21:10:03 +0700"
    },
    "done": true
  },
  "triumph:stage1/alloykiln": {
    "criteria": {
      "completedParent": "2024-04-23 01:11:11 +0700",
      "hasRock": "2024-04-23 01:29:46 +0700"
    },
    "done": true
  },
  "triumph:stage0/totemic": {
    "criteria": {
      "completedParent": "2024-04-19 16:03:14 +0700",
      "hasRock": "2024-04-21 18:31:41 +0700",
      "hasRock2": "2024-04-21 18:33:58 +0700",
      "hasRock3": "2024-04-21 03:50:07 +0700"
    },
    "done": true
  },
  "triumph:stage1/root": {
    "criteria": {
      "completedStage0": "2024-04-21 21:10:03 +0700"
    },
    "done": true
  },
  "triumph:stage2/conpaper": {
    "criteria": {
      "completedParent": "2024-04-27 16:57:50 +0700"
    },
    "done": false
  },
  "triumph:stage0/woodhopper1": {
    "criteria": {
      "completedParent": "2024-04-19 13:16:37 +0700",
      "hasRock": "2024-04-19 13:54:30 +0700"
    },
    "done": true
  },
  "triumph:stage0/woodhopper2": {
    "criteria": {
      "completedParent": "2024-04-19 13:54:30 +0700",
      "hasRock": "2024-04-19 15:29:26 +0700"
    },
    "done": true
  },
  "triumph:stage1/axle": {
    "criteria": {
      "completedParent": "2024-04-27 03:52:08 +0700",
      "hasRock": "2024-04-27 03:59:33 +0700"
    },
    "done": true
  },
  "triumph:stage5/osmium": {
    "criteria": {
      "hasRock": "2024-04-26 16:49:43 +0700"
    },
    "done": false
  },
  "triumph:stage0/fiber": {
    "criteria": {
      "completedParent": "2024-04-19 02:47:26 +0700",
      "hasRock": "2024-04-19 02:51:44 +0700"
    },
    "done": true
  },
  "triumph:stage0/firepit": {
    "criteria": {
      "completedParent": "2024-04-19 03:12:31 +0700",
      "hasRock": "2024-04-19 03:19:32 +0700"
    },
    "done": true
  },
  "triumph:stage1/furnace": {
    "criteria": {
      "completedParent": "2024-04-21 21:12:28 +0700",
      "crafted": "2024-04-23 00:37:34 +0700"
    },
    "done": true
  },
  "triumph:stage2/root": {
    "criteria": {
      "completedStage1": "2024-04-27 16:57:50 +0700"
    },
    "done": true
  },
  "triumph:stage1/extension": {
    "criteria": {
      "placedDirt": "2024-04-23 01:25:56 +0700",
      "completedParent": "2024-04-23 01:24:57 +0700"
    },
    "done": true
  },
  "triumph:stage1/tchannel": {
    "criteria": {
      "completedParent": "2024-04-21 21:10:03 +0700",
      "crafted1": "2024-04-23 01:33:46 +0700",
      "crafted2": "2024-04-23 01:33:46 +0700"
    },
    "done": true
  },
  "triumph:stage1/parrot": {
    "criteria": {
      "tamed_horse": "2024-04-27 05:04:40 +0700",
      "completedParent": "2024-04-27 03:26:22 +0700"
    },
    "done": true
  },
  "triumph:stage1/aquamarine": {
    "criteria": {
      "completedParent": "2024-04-27 03:30:10 +0700",
      "hasRock": "2024-04-27 04:56:03 +0700"
    },
    "done": true
  },
  "triumph:stage0/collectplank": {
    "criteria": {
      "completedParent": "2024-04-19 03:13:02 +0700",
      "crafted": "2024-04-19 03:13:30 +0700"
    },
    "done": true
  },
  "triumph:stage2/drawertable": {
    "criteria": {
      "completedParent": "2024-04-27 16:57:50 +0700"
    },
    "done": false
  },
  "triumph:stage1/blackquartz": {
    "criteria": {
      "completedParent": "2024-04-27 03:30:10 +0700",
      "hasRock": "2024-04-27 03:52:08 +0700"
    },
    "done": true
  },
  "triumph:stage0/saltflats": {
    "criteria": {
      "completedParent": "2024-04-19 13:50:01 +0700",
      "hasRock2": "2024-04-19 13:50:01 +0700",
      "hasRock1": "2024-04-19 13:50:01 +0700",
      "hasRock5": "2024-04-19 13:50:01 +0700",
      "hasRock4": "2024-04-19 13:50:01 +0700",
      "hasRock3": "2024-04-19 13:50:01 +0700"
    },
    "done": true
  },
  "triumph:stage2/sealantern": {
    "criteria": {
      "completedParent": "2024-04-27 16:57:50 +0700"
    },
    "done": false
  },
  "triumph:stage0/horsepower": {
    "criteria": {
      "completedParent": "2024-04-21 04:09:26 +0700",
      "hasRock": "2024-04-21 20:01:47 +0700"
    },
    "done": true
  },
  "triumph:stage0/atlas": {
    "criteria": {
      "book1": "2024-04-20 01:47:25 +0700",
      "completedParent": "2024-04-19 14:01:55 +0700"
    },
    "done": true
  },
  "triumph:stage1/statue": {
    "criteria": {
      "hasRock7": "2024-04-27 03:26:22 +0700",
      "completedParent": "2024-04-26 01:01:52 +0700",
      "hasRock2": "2024-04-27 03:26:22 +0700",
      "hasRock1": "2024-04-27 03:26:22 +0700",
      "hasRock6": "2024-04-27 03:26:22 +0700",
      "hasRock5": "2024-04-27 03:26:22 +0700",
      "hasRock4": "2024-04-27 03:26:22 +0700",
      "hasRock3": "2024-04-27 03:26:22 +0700"
    },
    "done": true
  },
  "triumph:stage1/cart": {
    "criteria": {
      "completedParent": "2024-04-21 04:12:34 +0700",
      "hasRock": "2024-04-21 04:15:46 +0700"
    },
    "done": true
  },
  "triumph:stage1/journal": {
    "criteria": {
      "completedParent": "2024-04-27 15:20:17 +0700",
      "hasRock": "2024-04-27 15:21:05 +0700"
    },
    "done": true
  },
  "triumph:stage1/astable": {
    "criteria": {
      "completedParent": "2024-04-27 15:21:05 +0700",
      "hasRock": "2024-04-27 16:57:50 +0700"
    },
    "done": true
  },
  "triumph:stage0/chestupgrade": {
    "criteria": {
      "completedParent": "2024-04-19 13:16:37 +0700",
      "hasRock": "2024-04-20 04:24:55 +0700"
    },
    "done": true
  },
  "triumph:stage2/wool": {
    "criteria": {
      "completedParent": "2024-04-27 16:57:50 +0700"
    },
    "done": false
  },
  "triumph:stage3/iehammer": {
    "criteria": {
      "hasRock": "2024-04-23 02:22:24 +0700"
    },
    "done": false
  },
  "triumph:stage2/glass": {
    "criteria": {
      "completedParent": "2024-04-27 16:57:50 +0700",
      "hasRock": "2024-04-27 17:43:21 +0700"
    },
    "done": true
  },
  "triumph:stage0/leather": {
    "criteria": {
      "completedParent": "2024-04-19 15:35:47 +0700",
      "hasRock": "2024-04-19 16:03:14 +0700"
    },
    "done": true
  },
  "triumph:stage1/tin": {
    "criteria": {
      "brokeLog1": "2024-04-23 00:46:43 +0700",
      "brokeLog2": "2024-04-23 00:46:43 +0700",
      "completedParent": "2024-04-23 00:39:00 +0700"
    },
    "done": true
  },
  "triumph:stage1/bloodaltar": {
    "criteria": {
      "completedParent": "2024-04-23 01:29:46 +0700",
      "hasRock": "2024-04-26 21:05:26 +0700"
    },
    "done": true
  },
  "triumph:stage0/weaponize": {
    "criteria": {
      "completedParent": "2024-04-19 03:12:31 +0700",
      "hasRock": "2024-04-19 15:08:33 +0700"
    },
    "done": true
  },
  "triumph:stage4/moon": {
    "criteria": {
      "entered_nether": "2024-04-23 01:54:42 +0700"
    },
    "done": false
  },
  "triumph:stage0/gear": {
    "criteria": {
      "completedParent": "2024-04-21 04:12:34 +0700",
      "hasRock": "2024-04-21 19:40:37 +0700"
    },
    "done": true
  },
  "triumph:stage1/crafting": {
    "criteria": {
      "completedParent": "2024-04-21 21:10:03 +0700",
      "crafted": "2024-04-21 21:12:28 +0700"
    },
    "done": true
  },
  "triumph:stage0/flintknapp": {
    "criteria": {
      "completedParent": "2024-04-19 03:08:31 +0700",
      "hasRock": "2024-04-19 03:11:15 +0700"
    },
    "done": true
  },
  "triumph:stage1/chest": {
    "criteria": {
      "completedParent": "2024-04-21 21:12:28 +0700",
      "brokeLog": "2024-04-21 21:34:23 +0700"
    },
    "done": true
  },
  "triumph:stage0/waterstrainer": {
    "criteria": {
      "completedParent": "2024-04-19 03:14:41 +0700",
      "hasRock2": "2024-04-19 17:02:01 +0700",
      "hasRock1": "2024-04-19 19:19:28 +0700"
    },
    "done": true
  },
  "triumph:stage0/grill": {
    "criteria": {
      "completedParent": "2024-04-19 03:19:32 +0700",
      "hasRock": "2024-04-19 13:50:01 +0700"
    },
    "done": true
  },
  "triumph:stage1/dung": {
    "criteria": {
      "completedParent": "2024-04-23 01:24:57 +0700",
      "placedDirt2": "2024-04-23 01:24:57 +0700",
      "placedDirt1": "2024-04-23 01:24:57 +0700"
    },
    "done": true
  },
  "triumph:stage5/mars": {
    "criteria": {
      "entered_nether": "2024-04-23 01:54:42 +0700"
    },
    "done": false
  },
  "triumph:stage2/iron": {
    "criteria": {
      "completedParent": "2024-04-27 17:47:38 +0700",
      "brokeLog": "2024-04-27 18:44:45 +0700"
    },
    "done": true
  },
  "triumph:stage0/kiln": {
    "criteria": {
      "completedParent": "2024-04-19 03:14:41 +0700",
      "hasRock": "2024-04-19 13:20:49 +0700"
    },
    "done": true
  },
  "triumph:stage1/beneath": {
    "criteria": {
      "completedParent": "2024-04-27 03:26:22 +0700",
      "entered_nether": "2024-04-27 03:30:10 +0700"
    },
    "done": true
  },
  "triumph:stage1/aqueduct": {
    "criteria": {
      "placedDirt8": "2024-04-22 00:19:22 +0700",
      "placedDirt9": "2024-04-22 00:19:22 +0700",
      "placedDirt6": "2024-04-22 00:19:22 +0700",
      "placedDirt7": "2024-04-22 00:19:22 +0700",
      "completedParent": "2024-04-21 21:10:03 +0700",
      "placedDirt4": "2024-04-22 00:19:22 +0700",
      "placedDirt5": "2024-04-22 00:19:22 +0700",
      "placedDirt2": "2024-04-22 00:19:22 +0700",
      "placedDirt10": "2024-04-22 00:19:22 +0700",
      "placedDirt3": "2024-04-22 00:19:22 +0700",
      "placedDirt0": "2024-04-22 00:19:22 +0700",
      "placedDirt1": "2024-04-22 00:19:22 +0700"
    },
    "done": true
  },
  "triumph:stage1/stoneanvil": {
    "criteria": {
      "completedParent": "2024-04-21 21:10:03 +0700",
      "crafted": "2024-04-23 01:27:42 +0700"
    },
    "done": true
  },
  "triumph:stage0/naturescompass": {
    "criteria": {
      "completedParent": "2024-04-19 03:14:41 +0700",
      "hasRock": "2024-04-19 16:31:43 +0700"
    },
    "done": true
  },
  "triumph:stage2/lapis": {
    "criteria": {
      "completedParent": "2024-04-27 17:47:38 +0700"
    },
    "done": false
  },
  "triumph:stage0/abyssalgem": {
    "criteria": {
      "completedParent": "2024-04-20 02:54:48 +0700",
      "hasRock": "2024-04-20 03:14:41 +0700"
    },
    "done": true
  },
  "triumph:stage0/firstbreak": {
    "criteria": {
      "brokeLog16": "2024-04-19 03:13:02 +0700",
      "brokeLog38": "2024-04-19 03:13:02 +0700",
      "brokeLog17": "2024-04-19 03:13:02 +0700",
      "brokeLog39": "2024-04-19 03:13:02 +0700",
      "brokeLog18": "2024-04-19 03:13:02 +0700",
      "brokeLog19": "2024-04-19 03:13:02 +0700",
      "completedParent": "2024-04-19 03:12:31 +0700",
      "brokeLog1": "2024-04-19 03:13:02 +0700",
      "brokeLog2": "2024-04-19 03:13:02 +0700",
      "brokeLog9": "2024-04-19 03:13:02 +0700",
      "brokeLog30": "2024-04-19 03:13:02 +0700",
      "brokeLog31": "2024-04-19 03:13:02 +0700",
      "brokeLog7": "2024-04-19 03:13:02 +0700",
      "brokeLog10": "2024-04-19 03:13:02 +0700",
      "brokeLog32": "2024-04-19 03:13:02 +0700",
      "brokeLog8": "2024-04-19 03:13:02 +0700",
      "brokeLog11": "2024-04-19 03:13:02 +0700",
      "brokeLog33": "2024-04-19 03:13:02 +0700",
      "brokeLog5": "2024-04-19 03:13:02 +0700",
      "brokeLog12": "2024-04-19 03:13:02 +0700",
      "brokeLog34": "2024-04-19 03:13:02 +0700",
      "brokeLog6": "2024-04-19 03:13:02 +0700",
      "brokeLog13": "2024-04-19 03:13:02 +0700",
      "brokeLog35": "2024-04-19 03:13:02 +0700",
      "brokeLog3": "2024-04-19 03:13:02 +0700",
      "brokeLog14": "2024-04-19 03:13:02 +0700",
      "brokeLog36": "2024-04-19 03:13:02 +0700",
      "brokeLog4": "2024-04-19 03:13:02 +0700",
      "brokeLog15": "2024-04-19 03:13:02 +0700",
      "brokeLog37": "2024-04-19 03:13:02 +0700",
      "brokeLog27": "2024-04-19 03:13:02 +0700",
      "brokeLog28": "2024-04-19 03:13:02 +0700",
      "brokeLog29": "2024-04-19 03:13:02 +0700",
      "brokeLog40": "2024-04-19 03:13:02 +0700",
      "brokeLog20": "2024-04-19 03:13:02 +0700",
      "brokeLog21": "2024-04-19 03:13:02 +0700",
      "brokeLog22": "2024-04-19 03:13:02 +0700",
      "brokeLog23": "2024-04-19 03:13:02 +0700",
      "brokeLog25": "2024-04-19 03:13:02 +0700",
      "brokeLog26": "2024-04-19 03:13:02 +0700"
    },
    "done": true
  },
  "triumph:stage0/saddle": {
    "criteria": {
      "completedParent": "2024-04-21 04:09:26 +0700",
      "hasRock": "2024-04-21 04:08:51 +0700"
    },
    "done": true
  },
  "triumph:stage0/melterbase": {
    "criteria": {
      "completedParent": "2024-04-21 19:47:29 +0700",
      "hasRock": "2024-04-21 20:06:51 +0700",
      "hasRock2": "2024-04-21 20:06:51 +0700"
    },
    "done": true
  },
  "triumph:stage0/fluidbladder": {
    "criteria": {
      "completedParent": "2024-04-19 03:14:41 +0700",
      "hasRock": "2024-04-19 15:35:47 +0700"
    },
    "done": true
  },
  "triumph:stage0/buffalo": {
    "criteria": {
      "completedParent": "2024-04-21 18:33:58 +0700",
      "hasRock": "2024-04-21 19:36:35 +0700"
    },
    "done": true
  },
  "triumph:stage1/huntingdim": {
    "criteria": {
      "completedParent": "2024-04-21 21:10:03 +0700",
      "hasRock": "2024-04-23 01:42:31 +0700"
    },
    "done": true
  },
  "triumph:stage0/flamehopper": {
    "criteria": {
      "completedParent": "2024-04-19 15:29:26 +0700",
      "hasRock": "2024-04-21 19:47:29 +0700"
    },
    "done": true
  },
  "triumph:stage0/farmland": {
    "criteria": {
      "completedParent": "2024-04-19 14:01:55 +0700",
      "traded": "2024-04-19 20:18:55 +0700"
    },
    "done": true
  },
  "triumph:stage0/workstump": {
    "criteria": {
      "completedParent": "2024-04-19 03:13:30 +0700",
      "crafted": "2024-04-19 03:14:41 +0700"
    },
    "done": true
  },
  "triumph:stage0/lowgradecharcoal": {
    "criteria": {
      "completedParent": "2024-04-19 13:20:49 +0700",
      "hasRock": "2024-04-19 13:41:17 +0700"
    },
    "done": true
  },
  "triumph:stage1/claybarrel": {
    "criteria": {
      "completedParent": "2024-04-21 21:10:03 +0700",
      "hasRock": "2024-04-23 01:24:57 +0700"
    },
    "done": true
  },
  "triumph:stage0/lead": {
    "criteria": {
      "completedParent": "2024-04-19 16:03:14 +0700",
      "hasRock": "2024-04-21 04:09:26 +0700"
    },
    "done": true
  },
  "triumph:stage0/firsttool": {
    "criteria": {
      "completedParent": "2024-04-19 02:47:26 +0700",
      "hasRock": "2024-04-19 03:12:31 +0700"
    },
    "done": true
  },
  "triumph:stage0/fish": {
    "criteria": {
      "killed_fish3": "2024-04-19 17:33:50 +0700",
      "killed_fish2": "2024-04-19 17:33:50 +0700",
      "killed_fish": "2024-04-19 17:33:50 +0700",
      "killed_fish4": "2024-04-19 17:33:50 +0700",
      "completedParent": "2024-04-19 16:25:01 +0700"
    },
    "done": true
  },
  "triumph:stage2/gold": {
    "criteria": {
      "completedParent": "2024-04-27 17:47:38 +0700"
    },
    "done": false
  },
  "triumph:stage2/tcontable1": {
    "criteria": {
      "completedParent": "2024-04-27 16:57:50 +0700",
      "hasRock": "2024-04-27 17:22:13 +0700"
    },
    "done": true
  },
  "triumph:stage2/tcontable2": {
    "criteria": {
      "completedParent": "2024-04-27 17:22:13 +0700"
    },
    "done": false
  },
  "triumph:stage0/tipi": {
    "criteria": {
      "completedParent": "2024-04-19 16:03:14 +0700",
      "hasRock": "2024-04-21 04:10:51 +0700"
    },
    "done": true
  },
  "triumph:stage1/hoe": {
    "criteria": {
      "hasRock15": "2024-04-21 23:17:03 +0700",
      "hasRock14": "2024-04-21 23:17:03 +0700",
      "hasRock13": "2024-04-21 23:17:03 +0700",
      "hasRock12": "2024-04-21 23:17:03 +0700",
      "hasRock19": "2024-04-21 23:17:03 +0700",
      "hasRock18": "2024-04-21 23:17:03 +0700",
      "completedParent": "2024-04-21 21:10:03 +0700",
      "hasRock17": "2024-04-21 23:17:03 +0700",
      "hasRock16": "2024-04-21 23:17:03 +0700",
      "hasRock9": "2024-04-21 23:17:03 +0700",
      "hasRock8": "2024-04-21 23:17:03 +0700",
      "hasRock7": "2024-04-21 23:17:03 +0700",
      "hasRock2": "2024-04-21 23:17:03 +0700",
      "hasRock1": "2024-04-21 23:17:03 +0700",
      "hasRock0": "2024-04-21 23:17:03 +0700",
      "hasRock6": "2024-04-21 23:17:03 +0700",
      "hasRock22": "2024-04-21 23:17:03 +0700",
      "hasRock5": "2024-04-21 23:17:03 +0700",
      "hasRock21": "2024-04-21 23:17:03 +0700",
      "hasRock4": "2024-04-21 23:17:03 +0700",
      "hasRock20": "2024-04-21 23:17:03 +0700",
      "hasRock3": "2024-04-21 23:17:03 +0700",
      "hasRock26": "2024-04-21 23:17:03 +0700",
      "hasRock25": "2024-04-21 23:17:03 +0700",
      "hasRock24": "2024-04-21 23:17:03 +0700",
      "hasRock23": "2024-04-21 23:17:03 +0700",
      "hasRock29": "2024-04-21 23:17:03 +0700",
      "hasRock28": "2024-04-21 23:17:03 +0700",
      "hasRock27": "2024-04-21 23:17:03 +0700",
      "hasRock11": "2024-04-21 23:17:03 +0700",
      "hasRock10": "2024-04-21 23:17:03 +0700",
      "hasRock30": "2024-04-21 23:17:03 +0700"
    },
    "done": true
  },
  "triumph:stage1/stepup": {
    "criteria": {
      "completedParent": "2024-04-26 21:05:26 +0700"
    },
    "done": false
  },
  "triumph:stage0/upgrade": {
    "criteria": {
      "completedParent": "2024-04-19 03:12:31 +0700",
      "hasRock": "2024-04-19 03:17:16 +0700"
    },
    "done": true
  },
  "triumph:stage0/fire": {
    "criteria": {
      "completedParent": "2024-04-19 03:12:31 +0700",
      "hasRock": "2024-04-19 02:58:58 +0700"
    },
    "done": true
  },
  "triumph:stage0/baykok": {
    "criteria": {
      "completedParent": "2024-04-21 19:36:35 +0700"
    },
    "done": false
  },
  "triumph:stage0/charcoal": {
    "criteria": {
      "completedParent": "2024-04-21 20:01:47 +0700",
      "hasRock": "2024-04-25 02:31:11 +0700"
    },
    "done": true
  },
  "triumph:stage1/parchment": {
    "criteria": {
      "completedParent": "2024-04-27 04:56:03 +0700",
      "hasRock": "2024-04-27 15:20:17 +0700",
      "hasCraftedRock": "2024-04-27 15:20:17 +0700"
    },
    "done": true
  },
  "triumph:stage0/wheel": {
    "criteria": {
      "completedParent": "2024-04-21 04:09:26 +0700",
      "hasRock": "2024-04-21 04:12:34 +0700"
    },
    "done": true
  },
  "triumph:stage2/smeltertank": {
    "criteria": {
      "completedParent": "2024-04-27 18:44:45 +0700"
    },
    "done": false
  },
  "triumph:stage1/gearbox": {
    "criteria": {
      "completedParent": "2024-04-27 14:27:43 +0700",
      "hasRock": "2024-04-27 14:36:11 +0700"
    },
    "done": true
  },
  "triumph:stage0/workblade": {
    "criteria": {
      "completedParent": "2024-04-19 03:17:16 +0700",
      "hasRock": "2024-04-19 14:01:55 +0700"
    },
    "done": true
  },
  "triumph:stage0/abyssalbiome": {
    "criteria": {
      "entered_forest3": "2024-04-20 02:54:48 +0700",
      "entered_forest": "2024-04-20 02:54:48 +0700",
      "entered_forest4": "2024-04-20 02:54:48 +0700",
      "completedParent": "2024-04-19 16:31:43 +0700",
      "entered_forest2": "2024-04-20 02:54:48 +0700",
      "entered_forest5": "2024-04-20 02:54:48 +0700"
    },
    "done": true
  },
  "triumph:stage0/spear": {
    "criteria": {
      "completedParent": "2024-04-19 15:08:33 +0700",
      "hasRock": "2024-04-19 16:25:01 +0700"
    },
    "done": true
  },
  "triumph:stage0/horsechopper": {
    "criteria": {
      "completedParent": "2024-04-21 20:01:47 +0700",
      "hasRock": "2024-04-21 19:55:55 +0700"
    },
    "done": true
  },
  "triumph:stage2/dowsingrod": {
    "criteria": {
      "completedParent": "2024-04-27 17:43:21 +0700",
      "crafted": "2024-04-27 17:47:38 +0700"
    },
    "done": true
  },
  "triumph:stage0/mill": {
    "criteria": {
      "hasRock": "2024-04-21 03:46:23 +0700",
      "completedParent": "2024-04-21 19:40:37 +0700"
    },
    "done": true
  },
  "triumph:stage1/necro": {
    "criteria": {
      "completedParent": "2024-04-24 01:16:59 +0700",
      "crafted": "2024-04-26 01:01:52 +0700"
    },
    "done": true
  },
  "triumph:stage2/paper": {
    "criteria": {
      "completedParent": "2024-04-27 16:57:50 +0700"
    },
    "done": false
  },
  "triumph:stage0/handgrind": {
    "criteria": {
      "completedParent": "2024-04-19 03:14:41 +0700",
      "hasRock": "2024-04-19 13:53:42 +0700"
    },
    "done": true
  },
  "triumph:stage1/copper": {
    "criteria": {
      "brokeLog1": "2024-04-23 01:11:11 +0700",
      "brokeLog2": "2024-04-23 01:11:11 +0700",
      "completedParent": "2024-04-23 00:39:00 +0700"
    },
    "done": true
  },
  "triumph:stage1/bronze": {
    "criteria": {
      "completedParent": "2024-04-23 01:29:46 +0700",
      "hasRock": "2024-04-24 01:16:59 +0700"
    },
    "done": true
  },
  "triumph:stage1/turntable": {
    "criteria": {
      "completedParent": "2024-04-27 14:36:11 +0700"
    },
    "done": false
  },
  "triumph:stage0/stonetools": {
    "criteria": {
      "completedParent": "2024-04-19 03:17:16 +0700",
      "hasRock": "2024-04-19 13:31:18 +0700"
    },
    "done": true
  },
  "triumph:stage1/woodbasin": {
    "criteria": {
      "completedParent": "2024-04-21 21:10:03 +0700",
      "hasRock": "2024-04-21 22:21:14 +0700"
    },
    "done": true
  },
  "triumph:stage1/plumbline": {
    "criteria": {
      "completedParent": "2024-04-21 21:12:28 +0700",
      "crafted": "2024-04-23 01:35:45 +0700"
    },
    "done": true
  },
  "triumph:stage1/pedestal": {
    "criteria": {
      "completedParent": "2024-04-27 03:26:22 +0700"
    },
    "done": false
  },
  "triumph:stage1/prospector": {
    "criteria": {
      "completedParent": "2024-04-21 21:12:28 +0700",
      "crafted": "2024-04-23 00:39:00 +0700"
    },
    "done": true
  },
  "triumph:stage1/waterwheel": {
    "criteria": {
      "completedParent": "2024-04-27 03:59:33 +0700",
      "hasRock": "2024-04-27 14:27:43 +0700"
    },
    "done": true
  },
  "triumph:stage0/root": {
    "criteria": {
      "killedByEntity": "2024-04-19 03:08:31 +0700",
      "enterDimension": "2024-04-19 03:08:31 +0700",
      "killEntity": "2024-04-19 03:08:31 +0700",
      "location": "2024-04-19 02:47:26 +0700",
      "breakBlock": "2024-04-19 03:08:31 +0700",
      "craftItem": "2024-04-19 03:08:31 +0700",
      "inventoryChange": "2024-04-19 03:08:31 +0700"
    },
    "done": true
  },
  "triumph:stage1/leafbed": {
    "criteria": {
      "completedParent": "2024-04-21 21:12:28 +0700",
      "hasRock": "2024-04-23 01:10:57 +0700"
    },
    "done": true
  },
  "triumph:stage0/firstchest": {
    "criteria": {
      "completedParent": "2024-04-19 03:14:41 +0700",
      "hasRock": "2024-04-19 13:16:37 +0700",
      "hasRock2": "2024-04-19 13:16:37 +0700",
      "hasRock4": "2024-04-19 13:16:37 +0700",
      "hasRock3": "2024-04-19 13:16:37 +0700"
    },
    "done": true
  },
  "triumph:stage3/nickel": {
    "criteria": {
      "hasRock2": "2024-04-27 18:51:11 +0700"
    },
    "done": false
  },
  "triumph:stage1/coal": {
    "criteria": {
      "hasRock": "2024-04-21 23:30:59 +0700",
      "completedParent": "2024-04-23 00:39:00 +0700"
    },
    "done": true
  },
  "triumph:stage2/starpowder": {
    "criteria": {
      "completedParent": "2024-04-27 17:47:38 +0700"
    },
    "done": false
  },
  "triumph:stage0/tomahawk": {
    "criteria": {
      "completedParent": "2024-04-19 15:08:33 +0700",
      "hasRock": "2024-04-19 16:22:48 +0700"
    },
    "done": true
  },
  "triumph:stage0/woodenbarrel": {
    "criteria": {
      "hasRock9": "2024-04-19 16:19:04 +0700",
      "hasRock8": "2024-04-19 16:19:04 +0700",
      "hasRock7": "2024-04-19 16:19:04 +0700",
      "completedParent": "2024-04-19 15:35:47 +0700",
      "hasRock2": "2024-04-19 16:19:04 +0700",
      "hasRock1": "2024-04-19 16:19:04 +0700",
      "hasRock6": "2024-04-19 16:19:04 +0700",
      "hasRock5": "2024-04-19 16:19:04 +0700",
      "hasRock10": "2024-04-19 16:19:04 +0700",
      "hasRock4": "2024-04-19 16:19:04 +0700",
      "hasRock3": "2024-04-19 16:19:04 +0700"
    },
    "done": true
  },
  "triumph:stage0/mesh": {
    "criteria": {
      "completedParent": "2024-04-19 02:51:44 +0700",
      "hasRock": "2024-04-19 03:08:31 +0700"
    },
    "done": true
  }
}